NAME          EXAMPLE
ROWS
 N  OBJ
 G  ROW01
 L  ROW02
 E  ROW03
 G  ROW04
 L  ROW05
 L  ROW06
 G  ROW07
COLUMNS
    COL01     OBJ                1.0   ROW01              3.0
    COL01     ROW05              5.6   ROW07              5.6
    COL02     ROW01              1.0   ROW02              2.0
    COL03     ROW02              1.1   ROW03              1.0
    COL04     ROW01             -2.0   ROW04              2.8
    COL04     ROW06              2.8
    COL05     OBJ                2.0   ROW01             -1.0
    COL05     ROW05              1.0   ROW07              1.0
    COL06     ROW03              1.0
    COL07     ROW04             -1.2   ROW06             -1.2
    COL08     OBJ               -1.0   ROW01             -1.0
    COL08     ROW05              1.9   ROW07              1.9
RHS
    RHS1      ROW01              2.5
    RHS1      ROW02              2.1
    RHS1      ROW03              4.0
    RHS1      ROW04              1.8
    RHS1      ROW05             15.0
    RHS1      ROW06              5.0
    RHS1      ROW07              3.0
BOUNDS
 LO BND1      COL01              2.5
 UP BND1      COL02              4.1
 LO BND1      COL05              0.5
 UP BND1      COL05              4.0
 UP BND1      COL08              4.3
ENDATA