NAME          LPDCMP1
ROWS
 N  OBJCTV01
 E  B0101
 E  B0102
 E  B0103
 E  B0104
 E  B0205
 E  B0206
 E  B0207
 E  B0208
 E  B0309
 E  B0310
 E  B0311
 E  B0312
 L  CPL13
COLUMNS
    X00       OBJCTV01      1.000000   B0102         1.000000
    X00       B0101        -1.000000
    X01       OBJCTV01      2.000000   B0104         1.000000
    X01       B0101        -1.000000   CPL13         1.000000
    X02       OBJCTV01      3.000000   B0102         1.000000
    X02       B0103        -1.000000
    X03       OBJCTV01      4.200000   B0104         1.000000
    X03       B0103        -1.000000
    X04       OBJCTV01      5.000000   B0104         1.000000
    X04       B0102        -1.000000
    X05       OBJCTV01      6.200000   B0102         1.000000
    X05       B0104        -1.000000
    X06       OBJCTV01      5.000000   B0101         1.000000
    X06       B0102        -1.000000
    X07       OBJCTV01      6.200000   B0103         1.000000
    X07       B0104        -1.000000
    X10       OBJCTV01      1.000000   B0206         1.000000
    X10       B0205        -1.000000
    X11       OBJCTV01      2.000000   B0208         1.000000
    X11       B0205        -1.000000   CPL13         1.000000
    X12       OBJCTV01      3.000000   B0206         1.000000
    X12       B0207        -1.000000
    X13       OBJCTV01      4.200000   B0208         1.000000
    X13       B0207        -1.000000
    X14       OBJCTV01      5.000000   B0208         1.000000
    X14       B0206        -1.000000
    X15       OBJCTV01      6.200000   B0206         1.000000
    X15       B0208        -1.000000
    X16       OBJCTV01      5.000000   B0205         1.000000
    X16       B0206        -1.000000
    X17       OBJCTV01      6.200000   B0207         1.000000
    X17       B0208        -1.000000
    X20       OBJCTV01      1.000000   B0310         1.000000
    X20       B0309        -1.000000
    X21       OBJCTV01      2.000000   B0312         1.000000
    X21       B0309        -1.000000   CPL13         1.000000
    X22       OBJCTV01      3.000000   B0310         1.000000
    X22       B0311        -1.000000
    X23       OBJCTV01      4.200000   B0312         1.000000
    X23       B0311        -1.000000
    X24       OBJCTV01      5.000000   B0312         1.000000
    X24       B0310        -1.000000
    X25       OBJCTV01      6.200000   B0310         1.000000
    X25       B0312        -1.000000
    X26       OBJCTV01      5.000000   B0309         1.000000
    X26       B0310        -1.000000
    X27       OBJCTV01      6.200000   B0311         1.000000
    X27       B0312        -1.000000
RHS
    RHS001    B0101        -1.000000   B0102         1.000000
    RHS001    B0103        -1.000000   B0104         1.000000
    RHS001    B0205        -1.000000   B0206         1.000000
    RHS001    B0207        -2.000000   B0208         2.000000
    RHS001    B0309        -1.000000   B0310         1.000000
    RHS001    B0311        -3.000000   B0312         3.000000
    RHS001    CPL13         1.000000
ENDATA