NAME          NEXAMPLE
ROWS
 N  OBJ
 G  ROW01
 E  ROW02
 E  ROW03
 L  ROW04
COLUMNS
    COL01     OBJ                1.0   ROW01              1.0
    COL01     ROW03             -1.0   ROW04              1.0   
    COL02     OBJ                2.0   ROW01              1.0
    COL02     ROW02             -1.0   ROW04              1.0
    COL03     OBJ                1.0   ROW02              1.0
    COL03     ROW03             -1.0
RHS
    RHS1      ROW01              2.0
    RHS1      ROW03             -3.0
    RHS1      ROW04              4.0
BOUNDS
 UP BND1      COL01              1.0
ENDATA