for 50 iterations

==3179565== Profiling application: ./project ./benchmark/miplib/instances/markshare_4_0.mps 7
==3179565== Profiling result:
            Type  Time(%)      Time     Calls       Avg       Min       Max  Name
 GPU activities:   83.23%  14.622ms        50  292.43us  290.21us  295.93us  void thrust::cuda_cub::core::_kernel_agent<thrust::cuda_cub::__reduce::ReduceAgent<thrust::zip_iterator<thrust::tuple<float*, thrust::cuda_cub::counting_iterator_t<long>, thrust::null_type, thrust::null_type, thrust::null_type, thrust::null_type, thrust::null_type, thrust::null_type, thrust::null_type, thrust::null_type>>, thrust::tuple<float, long, thrust::null_type, thrust::null_type, thrust::null_type, thrust::null_type, thrust::null_type, thrust::null_type, thrust::null_type, thrust::null_type>*, thrust::tuple<float, long, thrust::null_type, thrust::null_type, thrust::null_type, thrust::null_type, thrust::null_type, thrust::null_type, thrust::null_type, thrust::null_type>, int, thrust::cuda_cub::__extrema::arg_min_f<float, long, thrust::less<float>>>, thrust::zip_iterator<thrust::tuple<float*, thrust::cuda_cub::counting_iterator_t<long>, thrust::null_type, thrust::null_type, thrust::null_type, thrust::null_type, thrust::null_type, thrust::null_type, thrust::null_type, thrust::null_type>>, thrust::tuple<float, long, thrust::null_type, thrust::null_type, thrust::null_type, thrust::null_type, thrust::null_type, thrust::null_type, thrust::null_type, thrust::null_type>*, int, thrust::cuda_cub::__extrema::arg_min_f<float, long, thrust::less<float>>>(long, thrust::cuda_cub::counting_iterator_t<long>, thrust::null_type, thrust::null_type)
                    7.93%  1.3925ms        50  27.849us  27.520us  28.064us  void thrust::cuda_cub::core::_kernel_agent<thrust::cuda_cub::__parallel_for::ParallelForAgent<thrust::cuda_cub::for_each_f<thrust::pointer<thrust::tuple<float, long, thrust::null_type, thrust::null_type, thrust::null_type, thrust::null_type, thrust::null_type, thrust::null_type, thrust::null_type, thrust::null_type>, thrust::cuda_cub::par_t, thrust::use_default, thrust::use_default>, thrust::detail::wrapped_function<thrust::detail::allocator_traits_detail::gozer, void>>, long>, thrust::cuda_cub::for_each_f<thrust::pointer<thrust::tuple<float, long, thrust::null_type, thrust::null_type, thrust::null_type, thrust::null_type, thrust::null_type, thrust::null_type, thrust::null_type, thrust::null_type>, thrust::cuda_cub::par_t, thrust::use_default, thrust::use_default>, thrust::detail::wrapped_function<thrust::detail::allocator_traits_detail::gozer, void>>, long>(long, thrust::null_type)
                    7.07%  1.2417ms        50  24.833us  24.704us  25.056us  void thrust::cuda_cub::core::_kernel_agent<thrust::cuda_cub::__parallel_for::ParallelForAgent<thrust::cuda_cub::__uninitialized_copy::functor<thrust::tuple<float, long, thrust::null_type, thrust::null_type, thrust::null_type, thrust::null_type, thrust::null_type, thrust::null_type, thrust::null_type, thrust::null_type>*, thrust::pointer<thrust::tuple<float, long, thrust::null_type, thrust::null_type, thrust::null_type, thrust::null_type, thrust::null_type, thrust::null_type, thrust::null_type, thrust::null_type>, thrust::cuda_cub::par_t, thrust::use_default, thrust::use_default>>, long>, thrust::cuda_cub::__uninitialized_copy::functor<thrust::tuple<float, long, thrust::null_type, thrust::null_type, thrust::null_type, thrust::null_type, thrust::null_type, thrust::null_type, thrust::null_type, thrust::null_type>*, thrust::pointer<thrust::tuple<float, long, thrust::null_type, thrust::null_type, thrust::null_type, thrust::null_type, thrust::null_type, thrust::null_type, thrust::null_type, thrust::null_type>, thrust::cuda_cub::par_t, thrust::use_default, thrust::use_default>>, long>(long, thrust::null_type)
                    1.10%  192.57us        50  3.8510us  3.6800us  5.2800us  divKernel(float*, float const *, float const *, int, float)
                    0.68%  118.98us       100  1.1890us  1.0870us  1.4080us  [CUDA memcpy DtoH]
      API calls:   50.30%  17.398ms       200  86.987us     980ns  296.13us  cudaStreamSynchronize
                   36.90%  12.761ms       150  85.070us  5.3800us  336.75us  cudaMalloc
                    4.72%  1.6341ms       200  8.1700us  5.2100us  15.940us  cudaLaunchKernel
                    2.16%  745.89us        50  14.917us  13.850us  18.621us  cudaMemcpyAsync
                    1.76%  608.02us        50  12.160us  11.731us  14.550us  cudaMemcpy
                    1.50%  517.25us       100  5.1720us  3.7100us  33.501us  cudaFree
                    0.80%  276.19us      1800     153ns     130ns     410ns  cudaGetLastError
                    0.74%  255.05us        50  5.1010us  4.5600us  6.4300us  cudaDeviceSynchronize
                    0.64%  219.91us       450     488ns     350ns  1.2900us  cudaGetDevice
                    0.35%  120.82us       250     483ns     340ns  6.1000us  cudaDeviceGetAttribute
                    0.14%  47.661us       300     158ns     130ns     220ns  cudaPeekAtLastError
                    0.00%  1.5800us         1  1.5800us  1.5800us  1.5800us  cuDeviceGetCount