NAME          JSSP      FREE
ROWS
 N  OBJROW
 G  constr(0)
 G  constr(1)
 G  constr(2)
 G  constr(3)
 G  constr(4)
 G  constr(5)
 G  constr(6)
 G  constr(7)
 G  constr(8)
 G  constr(9)
 G  constr(10)
 G  constr(11)
 G  constr(12)
 G  constr(13)
 G  constr(14)
 G  constr(15)
 G  constr(16)
 G  constr(17)
 G  constr(18)
 G  constr(19)
 G  constr(20)
 G  constr(21)
 G  constr(22)
 G  constr(23)
 G  constr(24)
 G  constr(25)
 G  constr(26)
 G  constr(27)
 G  constr(28)
 G  constr(29)
 G  constr(30)
 G  constr(31)
 G  constr(32)
 G  constr(33)
 G  constr(34)
 G  constr(35)
 G  constr(36)
 G  constr(37)
 G  constr(38)
 G  constr(39)
 G  constr(40)
 G  constr(41)
 G  constr(42)
 G  constr(43)
 G  constr(44)
COLUMNS
    C OBJROW 1.           constr(42) 1.          
    C constr(43) 1.           constr(44) 1.          
    x(1,1) constr(0) 1.           constr(1)  -1.        
    x(1,1) constr(6) 1.           constr(7)  -1.        
    x(1,1) constr(12) 1.           constr(13)  -1.        
    x(1,1) constr(18)  -1.         constr(19) 1.          
    x(1,1) constr(30)  -1.         constr(31) 1.          
    x(1,2) constr(1) 1.           constr(8) 1.          
    x(1,2) constr(9)  -1.         constr(14) 1.          
    x(1,2) constr(15)  -1.         constr(20)  -1.        
    x(1,2) constr(21) 1.           constr(32)  -1.        
    x(1,2) constr(33) 1.           constr(42)  -1.        
    x(1,3) constr(0)  -1.         constr(10) 1.          
    x(1,3) constr(11)  -1.         constr(16) 1.          
    x(1,3) constr(17)  -1.         constr(22)  -1.        
    x(1,3) constr(23) 1.           constr(34)  -1.        
    x(1,3) constr(35) 1.          
    x(2,1) constr(3) 1.           constr(6)  -1.        
    x(2,1) constr(7) 1.           constr(18) 1.          
    x(2,1) constr(19)  -1.         constr(24) 1.          
    x(2,1) constr(25)  -1.         constr(36)  -1.        
    x(2,1) constr(37) 1.           constr(43)  -1.        
    x(2,2) constr(2)  -1.         constr(8)  -1.        
    x(2,2) constr(9) 1.           constr(20) 1.          
    x(2,2) constr(21)  -1.         constr(26) 1.          
    x(2,2) constr(27)  -1.         constr(38)  -1.        
    x(2,2) constr(39) 1.          
    x(2,3) constr(2) 1.           constr(3)  -1.        
    x(2,3) constr(10)  -1.         constr(11) 1.          
    x(2,3) constr(22) 1.           constr(23)  -1.        
    x(2,3) constr(28) 1.           constr(29)  -1.        
    x(2,3) constr(40)  -1.         constr(41) 1.          
    x(3,1) constr(5) 1.           constr(12)  -1.        
    x(3,1) constr(13) 1.           constr(24)  -1.        
    x(3,1) constr(25) 1.           constr(30) 1.          
    x(3,1) constr(31)  -1.         constr(36) 1.          
    x(3,1) constr(37)  -1.         constr(44)  -1.        
    x(3,2) constr(4) 1.           constr(5)  -1.        
    x(3,2) constr(14)  -1.         constr(15) 1.          
    x(3,2) constr(26)  -1.         constr(27) 1.          
    x(3,2) constr(32) 1.           constr(33)  -1.        
    x(3,2) constr(38) 1.           constr(39)  -1.        
    x(3,3) constr(4)  -1.         constr(16)  -1.        
    x(3,3) constr(17) 1.           constr(28)  -1.        
    x(3,3) constr(29) 1.           constr(34) 1.          
    x(3,3) constr(35)  -1.         constr(40) 1.          
    x(3,3) constr(41)  -1.        
    y(1,2,1) constr(6) 14.          constr(7)  -14.       
    y(1,2,2) constr(8) 14.          constr(9)  -14.       
    y(1,2,3) constr(10) 14.          constr(11)  -14.       
    y(1,3,1) constr(12) 14.          constr(13)  -14.       
    y(1,3,2) constr(14) 14.          constr(15)  -14.       
    y(1,3,3) constr(16) 14.          constr(17)  -14.       
    y(2,1,1) constr(18) 14.          constr(19)  -14.       
    y(2,1,2) constr(20) 14.          constr(21)  -14.       
    y(2,1,3) constr(22) 14.          constr(23)  -14.       
    y(2,3,1) constr(24) 14.          constr(25)  -14.       
    y(2,3,2) constr(26) 14.          constr(27)  -14.       
    y(2,3,3) constr(28) 14.          constr(29)  -14.       
    y(3,1,1) constr(30) 14.          constr(31)  -14.       
    y(3,1,2) constr(32) 14.          constr(33)  -14.       
    y(3,1,3) constr(34) 14.          constr(35)  -14.       
    y(3,2,1) constr(36) 14.          constr(37)  -14.       
    y(3,2,2) constr(38) 14.          constr(39)  -14.       
    y(3,2,3) constr(40) 14.          constr(41)  -14.       
RHS
    RHS constr(0) 2.           constr(1) 2.          
    RHS constr(2) 2.           constr(3) 2.          
    RHS constr(4) 1.           constr(5) 2.          
    RHS constr(6) 1.           constr(7)  -12.       
    RHS constr(8) 2.           constr(9)  -13.       
    RHS constr(10) 2.           constr(11)  -12.       
    RHS constr(12) 1.           constr(13)  -12.       
    RHS constr(14) 2.           constr(15)  -13.       
    RHS constr(16) 1.           constr(17)  -12.       
    RHS constr(18) 2.           constr(19)  -13.       
    RHS constr(20) 1.           constr(21)  -12.       
    RHS constr(22) 2.           constr(23)  -12.       
    RHS constr(24) 1.           constr(25)  -13.       
    RHS constr(26) 2.           constr(27)  -12.       
    RHS constr(28) 1.           constr(29)  -12.       
    RHS constr(30) 2.           constr(31)  -13.       
    RHS constr(32) 1.           constr(33)  -12.       
    RHS constr(34) 2.           constr(35)  -13.       
    RHS constr(36) 1.           constr(37)  -13.       
    RHS constr(38) 2.           constr(39)  -12.       
    RHS constr(40) 2.           constr(41)  -13.       
    RHS constr(42) 1.           constr(43) 1.          
    RHS constr(44) 1.          
BOUNDS
 BV BOUND y(1,2,1) 1.          
 BV BOUND y(1,2,2) 1.          
 BV BOUND y(1,2,3) 1.          
 BV BOUND y(1,3,1) 1.          
 BV BOUND y(1,3,2) 1.          
 BV BOUND y(1,3,3) 1.          
 BV BOUND y(2,1,1) 1.          
 BV BOUND y(2,1,2) 1.          
 BV BOUND y(2,1,3) 1.          
 BV BOUND y(2,3,1) 1.          
 BV BOUND y(2,3,2) 1.          
 BV BOUND y(2,3,3) 1.          
 BV BOUND y(3,1,1) 1.          
 BV BOUND y(3,1,2) 1.          
 BV BOUND y(3,1,3) 1.          
 BV BOUND y(3,2,1) 1.          
 BV BOUND y(3,2,2) 1.          
 BV BOUND y(3,2,3) 1.          
ENDATA
