NAME          BLANK     FREE
ROWS
 N  OBJROW
 E  constr(0)
 E  constr(1)
 E  constr(2)
 E  constr(3)
 E  constr(4)
 E  constr(5)
 E  constr(6)
 E  constr(7)
 E  constr(8)
 E  constr(9)
 E  constr(10)
 E  constr(11)
 E  constr(12)
 E  constr(13)
 E  constr(14)
 E  constr(15)
 E  constr(16)
 E  constr(17)
 E  constr(18)
 E  constr(19)
 E  constr(20)
 E  constr(21)
 E  constr(22)
 E  constr(23)
 E  constr(24)
 E  constr(25)
 E  constr(26)
 E  constr(27)
 G  constr(28)
 G  constr(29)
 G  constr(30)
 G  constr(31)
 G  constr(32)
 G  constr(33)
 G  constr(34)
 G  constr(35)
 G  constr(36)
 G  constr(37)
 G  constr(38)
 G  constr(39)
 G  constr(40)
 G  constr(41)
 G  constr(42)
 G  constr(43)
 G  constr(44)
 G  constr(45)
 G  constr(46)
 G  constr(47)
 G  constr(48)
 G  constr(49)
 G  constr(50)
 G  constr(51)
 G  constr(52)
 G  constr(53)
 G  constr(54)
 G  constr(55)
 G  constr(56)
 G  constr(57)
 G  constr(58)
 G  constr(59)
 G  constr(60)
 G  constr(61)
 G  constr(62)
 G  constr(63)
 G  constr(64)
 G  constr(65)
 G  constr(66)
 G  constr(67)
 G  constr(68)
 G  constr(69)
 G  constr(70)
 G  constr(71)
 G  constr(72)
 G  constr(73)
 G  constr(74)
 G  constr(75)
 G  constr(76)
 G  constr(77)
 G  constr(78)
 G  constr(79)
 G  constr(80)
 G  constr(81)
 G  constr(82)
 G  constr(83)
 G  constr(84)
 G  constr(85)
 G  constr(86)
 G  constr(87)
 G  constr(88)
 G  constr(89)
 G  constr(90)
 G  constr(91)
 G  constr(92)
 G  constr(93)
 G  constr(94)
 G  constr(95)
 G  constr(96)
 G  constr(97)
 G  constr(98)
 G  constr(99)
 G  constr(100)
 G  constr(101)
 G  constr(102)
 G  constr(103)
 G  constr(104)
 G  constr(105)
 G  constr(106)
 G  constr(107)
 G  constr(108)
 G  constr(109)
 G  constr(110)
 G  constr(111)
 G  constr(112)
 G  constr(113)
 G  constr(114)
 G  constr(115)
 G  constr(116)
 G  constr(117)
 G  constr(118)
 G  constr(119)
 G  constr(120)
 G  constr(121)
 G  constr(122)
 G  constr(123)
 G  constr(124)
 G  constr(125)
 G  constr(126)
 G  constr(127)
 G  constr(128)
 G  constr(129)
 G  constr(130)
 G  constr(131)
 G  constr(132)
 G  constr(133)
 G  constr(134)
 G  constr(135)
 G  constr(136)
 G  constr(137)
 G  constr(138)
 G  constr(139)
 G  constr(140)
 G  constr(141)
 G  constr(142)
 G  constr(143)
 G  constr(144)
 G  constr(145)
 G  constr(146)
 G  constr(147)
 G  constr(148)
 G  constr(149)
 G  constr(150)
 G  constr(151)
 G  constr(152)
 G  constr(153)
 G  constr(154)
 G  constr(155)
 G  constr(156)
 G  constr(157)
 G  constr(158)
 G  constr(159)
 G  constr(160)
 G  constr(161)
 G  constr(162)
 G  constr(163)
 G  constr(164)
 G  constr(165)
 G  constr(166)
 G  constr(167)
 G  constr(168)
 G  constr(169)
 G  constr(170)
 G  constr(171)
 G  constr(172)
 G  constr(173)
 G  constr(174)
 G  constr(175)
 G  constr(176)
 G  constr(177)
 G  constr(178)
 G  constr(179)
 G  constr(180)
 G  constr(181)
 G  constr(182)
 G  constr(183)
COLUMNS
    var(1) OBJROW 83.          constr(0) 1.          
    var(1) constr(15) 1.          
    var(2) OBJROW 81.          constr(0) 1.          
    var(2) constr(16) 1.          
    var(3) OBJROW 113.         constr(0) 1.          
    var(3) constr(17) 1.          
    var(4) OBJROW 52.          constr(0) 1.          
    var(4) constr(18) 1.          
    var(5) OBJROW 42.          constr(0) 1.          
    var(5) constr(19) 1.          
    var(6) OBJROW 73.          constr(0) 1.          
    var(6) constr(20) 1.          
    var(7) OBJROW 44.          constr(0) 1.          
    var(7) constr(21) 1.          
    var(8) OBJROW 23.          constr(0) 1.          
    var(8) constr(22) 1.          
    var(9) OBJROW 91.          constr(0) 1.          
    var(9) constr(23) 1.          
    var(10) OBJROW 105.         constr(0) 1.          
    var(10) constr(24) 1.          
    var(11) OBJROW 90.          constr(0) 1.          
    var(11) constr(25) 1.          
    var(12) OBJROW 124.         constr(0) 1.          
    var(12) constr(26) 1.          
    var(13) OBJROW 57.          constr(0) 1.          
    var(13) constr(27) 1.          
    var(14) OBJROW 83.          constr(1) 1.          
    var(14) constr(14) 1.          
    var(16) OBJROW 161.         constr(1) 1.          
    var(16) constr(16) 1.           constr(28)  -15.       
    var(17) OBJROW 160.         constr(1) 1.          
    var(17) constr(17) 1.           constr(29)  -15.       
    var(18) OBJROW 39.          constr(1) 1.          
    var(18) constr(18) 1.           constr(30)  -15.       
    var(19) OBJROW 89.          constr(1) 1.          
    var(19) constr(19) 1.           constr(31)  -15.       
    var(20) OBJROW 151.         constr(1) 1.          
    var(20) constr(20) 1.           constr(32)  -15.       
    var(21) OBJROW 110.         constr(1) 1.          
    var(21) constr(21) 1.           constr(33)  -15.       
    var(22) OBJROW 90.          constr(1) 1.          
    var(22) constr(22) 1.           constr(34)  -15.       
    var(23) OBJROW 99.          constr(1) 1.          
    var(23) constr(23) 1.           constr(35)  -15.       
    var(24) OBJROW 177.         constr(1) 1.          
    var(24) constr(24) 1.           constr(36)  -15.       
    var(25) OBJROW 143.         constr(1) 1.          
    var(25) constr(25) 1.           constr(37)  -15.       
    var(26) OBJROW 193.         constr(1) 1.          
    var(26) constr(26) 1.           constr(38)  -15.       
    var(27) OBJROW 100.         constr(1) 1.          
    var(27) constr(27) 1.           constr(39)  -15.       
    var(28) OBJROW 81.          constr(2) 1.          
    var(28) constr(14) 1.          
    var(29) OBJROW 161.         constr(2) 1.          
    var(29) constr(15) 1.           constr(40)  -15.       
    var(31) OBJROW 90.          constr(2) 1.          
    var(31) constr(17) 1.           constr(41)  -15.       
    var(32) OBJROW 125.         constr(2) 1.          
    var(32) constr(18) 1.           constr(42)  -15.       
    var(33) OBJROW 82.          constr(2) 1.          
    var(33) constr(19) 1.           constr(43)  -15.       
    var(34) OBJROW 13.          constr(2) 1.          
    var(34) constr(20) 1.           constr(44)  -15.       
    var(35) OBJROW 57.          constr(2) 1.          
    var(35) constr(21) 1.           constr(45)  -15.       
    var(36) OBJROW 71.          constr(2) 1.          
    var(36) constr(22) 1.           constr(46)  -15.       
    var(37) OBJROW 123.         constr(2) 1.          
    var(37) constr(23) 1.           constr(47)  -15.       
    var(38) OBJROW 38.          constr(2) 1.          
    var(38) constr(24) 1.           constr(48)  -15.       
    var(39) OBJROW 72.          constr(2) 1.          
    var(39) constr(25) 1.           constr(49)  -15.       
    var(40) OBJROW 59.          constr(2) 1.          
    var(40) constr(26) 1.           constr(50)  -15.       
    var(41) OBJROW 82.          constr(2) 1.          
    var(41) constr(27) 1.           constr(51)  -15.       
    var(42) OBJROW 113.         constr(3) 1.          
    var(42) constr(14) 1.          
    var(43) OBJROW 160.         constr(3) 1.          
    var(43) constr(15) 1.           constr(52)  -15.       
    var(44) OBJROW 90.          constr(3) 1.          
    var(44) constr(16) 1.           constr(53)  -15.       
    var(46) OBJROW 123.         constr(3) 1.          
    var(46) constr(18) 1.           constr(54)  -15.       
    var(47) OBJROW 77.          constr(3) 1.          
    var(47) constr(19) 1.           constr(55)  -15.       
    var(48) OBJROW 81.          constr(3) 1.          
    var(48) constr(20) 1.           constr(56)  -15.       
    var(49) OBJROW 71.          constr(3) 1.          
    var(49) constr(21) 1.           constr(57)  -15.       
    var(50) OBJROW 91.          constr(3) 1.          
    var(50) constr(22) 1.           constr(58)  -15.       
    var(51) OBJROW 72.          constr(3) 1.          
    var(51) constr(23) 1.           constr(59)  -15.       
    var(52) OBJROW 64.          constr(3) 1.          
    var(52) constr(24) 1.           constr(60)  -15.       
    var(53) OBJROW 24.          constr(3) 1.          
    var(53) constr(25) 1.           constr(61)  -15.       
    var(54) OBJROW 62.          constr(3) 1.          
    var(54) constr(26) 1.           constr(62)  -15.       
    var(55) OBJROW 63.          constr(3) 1.          
    var(55) constr(27) 1.           constr(63)  -15.       
    var(56) OBJROW 52.          constr(4) 1.          
    var(56) constr(14) 1.          
    var(57) OBJROW 39.          constr(4) 1.          
    var(57) constr(15) 1.           constr(64)  -15.       
    var(58) OBJROW 125.         constr(4) 1.          
    var(58) constr(16) 1.           constr(65)  -15.       
    var(59) OBJROW 123.         constr(4) 1.          
    var(59) constr(17) 1.           constr(66)  -15.       
    var(61) OBJROW 51.          constr(4) 1.          
    var(61) constr(19) 1.           constr(67)  -15.       
    var(62) OBJROW 114.         constr(4) 1.          
    var(62) constr(20) 1.           constr(68)  -15.       
    var(63) OBJROW 72.          constr(4) 1.          
    var(63) constr(21) 1.           constr(69)  -15.       
    var(64) OBJROW 54.          constr(4) 1.          
    var(64) constr(22) 1.           constr(70)  -15.       
    var(65) OBJROW 69.          constr(4) 1.          
    var(65) constr(23) 1.           constr(71)  -15.       
    var(66) OBJROW 139.         constr(4) 1.          
    var(66) constr(24) 1.           constr(72)  -15.       
    var(67) OBJROW 105.         constr(4) 1.          
    var(67) constr(25) 1.           constr(73)  -15.       
    var(68) OBJROW 155.         constr(4) 1.          
    var(68) constr(26) 1.           constr(74)  -15.       
    var(69) OBJROW 62.          constr(4) 1.          
    var(69) constr(27) 1.           constr(75)  -15.       
    var(70) OBJROW 42.          constr(5) 1.          
    var(70) constr(14) 1.          
    var(71) OBJROW 89.          constr(5) 1.          
    var(71) constr(15) 1.           constr(76)  -15.       
    var(72) OBJROW 82.          constr(5) 1.          
    var(72) constr(16) 1.           constr(77)  -15.       
    var(73) OBJROW 77.          constr(5) 1.          
    var(73) constr(17) 1.           constr(78)  -15.       
    var(74) OBJROW 51.          constr(5) 1.          
    var(74) constr(18) 1.           constr(79)  -15.       
    var(76) OBJROW 70.          constr(5) 1.          
    var(76) constr(20) 1.           constr(80)  -15.       
    var(77) OBJROW 25.          constr(5) 1.          
    var(77) constr(21) 1.           constr(81)  -15.       
    var(78) OBJROW 22.          constr(5) 1.          
    var(78) constr(22) 1.           constr(82)  -15.       
    var(79) OBJROW 52.          constr(5) 1.          
    var(79) constr(23) 1.           constr(83)  -15.       
    var(80) OBJROW 90.          constr(5) 1.          
    var(80) constr(24) 1.           constr(84)  -15.       
    var(81) OBJROW 56.          constr(5) 1.          
    var(81) constr(25) 1.           constr(85)  -15.       
    var(82) OBJROW 105.         constr(5) 1.          
    var(82) constr(26) 1.           constr(86)  -15.       
    var(83) OBJROW 16.          constr(5) 1.          
    var(83) constr(27) 1.           constr(87)  -15.       
    var(84) OBJROW 73.          constr(6) 1.          
    var(84) constr(14) 1.          
    var(85) OBJROW 151.         constr(6) 1.          
    var(85) constr(15) 1.           constr(88)  -15.       
    var(86) OBJROW 13.          constr(6) 1.          
    var(86) constr(16) 1.           constr(89)  -15.       
    var(87) OBJROW 81.          constr(6) 1.          
    var(87) constr(17) 1.           constr(90)  -15.       
    var(88) OBJROW 114.         constr(6) 1.          
    var(88) constr(18) 1.           constr(91)  -15.       
    var(89) OBJROW 70.          constr(6) 1.          
    var(89) constr(19) 1.           constr(92)  -15.       
    var(91) OBJROW 45.          constr(6) 1.          
    var(91) constr(21) 1.           constr(93)  -15.       
    var(92) OBJROW 61.          constr(6) 1.          
    var(92) constr(22) 1.           constr(94)  -15.       
    var(93) OBJROW 111.         constr(6) 1.          
    var(93) constr(23) 1.           constr(95)  -15.       
    var(94) OBJROW 36.          constr(6) 1.          
    var(94) constr(24) 1.           constr(96)  -15.       
    var(95) OBJROW 61.          constr(6) 1.          
    var(95) constr(25) 1.           constr(97)  -15.       
    var(96) OBJROW 57.          constr(6) 1.          
    var(96) constr(26) 1.           constr(98)  -15.       
    var(97) OBJROW 70.          constr(6) 1.          
    var(97) constr(27) 1.           constr(99)  -15.       
    var(98) OBJROW 44.          constr(7) 1.          
    var(98) constr(14) 1.          
    var(99) OBJROW 110.         constr(7) 1.          
    var(99) constr(15) 1.           constr(100)  -15.       
    var(100) OBJROW 57.          constr(7) 1.          
    var(100) constr(16) 1.           constr(101)  -15.       
    var(101) OBJROW 71.          constr(7) 1.          
    var(101) constr(17) 1.           constr(102)  -15.       
    var(102) OBJROW 72.          constr(7) 1.          
    var(102) constr(18) 1.           constr(103)  -15.       
    var(103) OBJROW 25.          constr(7) 1.          
    var(103) constr(19) 1.           constr(104)  -15.       
    var(104) OBJROW 45.          constr(7) 1.          
    var(104) constr(20) 1.           constr(105)  -15.       
    var(106) OBJROW 23.          constr(7) 1.          
    var(106) constr(22) 1.           constr(106)  -15.       
    var(107) OBJROW 71.          constr(7) 1.          
    var(107) constr(23) 1.           constr(107)  -15.       
    var(108) OBJROW 67.          constr(7) 1.          
    var(108) constr(24) 1.           constr(108)  -15.       
    var(109) OBJROW 48.          constr(7) 1.          
    var(109) constr(25) 1.           constr(109)  -15.       
    var(110) OBJROW 85.          constr(7) 1.          
    var(110) constr(26) 1.           constr(110)  -15.       
    var(111) OBJROW 29.          constr(7) 1.          
    var(111) constr(27) 1.           constr(111)  -15.       
    var(112) OBJROW 23.          constr(8) 1.          
    var(112) constr(14) 1.          
    var(113) OBJROW 90.          constr(8) 1.          
    var(113) constr(15) 1.           constr(112)  -15.       
    var(114) OBJROW 71.          constr(8) 1.          
    var(114) constr(16) 1.           constr(113)  -15.       
    var(115) OBJROW 91.          constr(8) 1.          
    var(115) constr(17) 1.           constr(114)  -15.       
    var(116) OBJROW 54.          constr(8) 1.          
    var(116) constr(18) 1.           constr(115)  -15.       
    var(117) OBJROW 22.          constr(8) 1.          
    var(117) constr(19) 1.           constr(116)  -15.       
    var(118) OBJROW 61.          constr(8) 1.          
    var(118) constr(20) 1.           constr(117)  -15.       
    var(119) OBJROW 23.          constr(8) 1.          
    var(119) constr(21) 1.           constr(118)  -15.       
    var(121) OBJROW 74.          constr(8) 1.          
    var(121) constr(23) 1.           constr(119)  -15.       
    var(122) OBJROW 89.          constr(8) 1.          
    var(122) constr(24) 1.           constr(120)  -15.       
    var(123) OBJROW 69.          constr(8) 1.          
    var(123) constr(25) 1.           constr(121)  -15.       
    var(124) OBJROW 107.         constr(8) 1.          
    var(124) constr(26) 1.           constr(122)  -15.       
    var(125) OBJROW 36.          constr(8) 1.          
    var(125) constr(27) 1.           constr(123)  -15.       
    var(126) OBJROW 91.          constr(9) 1.          
    var(126) constr(14) 1.          
    var(127) OBJROW 99.          constr(9) 1.          
    var(127) constr(15) 1.           constr(124)  -15.       
    var(128) OBJROW 123.         constr(9) 1.          
    var(128) constr(16) 1.           constr(125)  -15.       
    var(129) OBJROW 72.          constr(9) 1.          
    var(129) constr(17) 1.           constr(126)  -15.       
    var(130) OBJROW 69.          constr(9) 1.          
    var(130) constr(18) 1.           constr(127)  -15.       
    var(131) OBJROW 52.          constr(9) 1.          
    var(131) constr(19) 1.           constr(128)  -15.       
    var(132) OBJROW 111.         constr(9) 1.          
    var(132) constr(20) 1.           constr(129)  -15.       
    var(133) OBJROW 71.          constr(9) 1.          
    var(133) constr(21) 1.           constr(130)  -15.       
    var(134) OBJROW 74.          constr(9) 1.          
    var(134) constr(22) 1.           constr(131)  -15.       
    var(136) OBJROW 117.         constr(9) 1.          
    var(136) constr(24) 1.           constr(132)  -15.       
    var(137) OBJROW 65.          constr(9) 1.          
    var(137) constr(25) 1.           constr(133)  -15.       
    var(138) OBJROW 125.         constr(9) 1.          
    var(138) constr(26) 1.           constr(134)  -15.       
    var(139) OBJROW 43.          constr(9) 1.          
    var(139) constr(27) 1.           constr(135)  -15.       
    var(140) OBJROW 105.         constr(10) 1.          
    var(140) constr(14) 1.          
    var(141) OBJROW 177.         constr(10) 1.          
    var(141) constr(15) 1.           constr(136)  -15.       
    var(142) OBJROW 38.          constr(10) 1.          
    var(142) constr(16) 1.           constr(137)  -15.       
    var(143) OBJROW 64.          constr(10) 1.          
    var(143) constr(17) 1.           constr(138)  -15.       
    var(144) OBJROW 139.         constr(10) 1.          
    var(144) constr(18) 1.           constr(139)  -15.       
    var(145) OBJROW 90.          constr(10) 1.          
    var(145) constr(19) 1.           constr(140)  -15.       
    var(146) OBJROW 36.          constr(10) 1.          
    var(146) constr(20) 1.           constr(141)  -15.       
    var(147) OBJROW 67.          constr(10) 1.          
    var(147) constr(21) 1.           constr(142)  -15.       
    var(148) OBJROW 89.          constr(10) 1.          
    var(148) constr(22) 1.           constr(143)  -15.       
    var(149) OBJROW 117.         constr(10) 1.          
    var(149) constr(23) 1.           constr(144)  -15.       
    var(151) OBJROW 54.          constr(10) 1.          
    var(151) constr(25) 1.           constr(145)  -15.       
    var(152) OBJROW 22.          constr(10) 1.          
    var(152) constr(26) 1.           constr(146)  -15.       
    var(153) OBJROW 84.          constr(10) 1.          
    var(153) constr(27) 1.           constr(147)  -15.       
    var(154) OBJROW 90.          constr(11) 1.          
    var(154) constr(14) 1.          
    var(155) OBJROW 143.         constr(11) 1.          
    var(155) constr(15) 1.           constr(148)  -15.       
    var(156) OBJROW 72.          constr(11) 1.          
    var(156) constr(16) 1.           constr(149)  -15.       
    var(157) OBJROW 24.          constr(11) 1.          
    var(157) constr(17) 1.           constr(150)  -15.       
    var(158) OBJROW 105.         constr(11) 1.          
    var(158) constr(18) 1.           constr(151)  -15.       
    var(159) OBJROW 56.          constr(11) 1.          
    var(159) constr(19) 1.           constr(152)  -15.       
    var(160) OBJROW 61.          constr(11) 1.          
    var(160) constr(20) 1.           constr(153)  -15.       
    var(161) OBJROW 48.          constr(11) 1.          
    var(161) constr(21) 1.           constr(154)  -15.       
    var(162) OBJROW 69.          constr(11) 1.          
    var(162) constr(22) 1.           constr(155)  -15.       
    var(163) OBJROW 65.          constr(11) 1.          
    var(163) constr(23) 1.           constr(156)  -15.       
    var(164) OBJROW 54.          constr(11) 1.          
    var(164) constr(24) 1.           constr(157)  -15.       
    var(166) OBJROW 60.          constr(11) 1.          
    var(166) constr(26) 1.           constr(158)  -15.       
    var(167) OBJROW 44.          constr(11) 1.          
    var(167) constr(27) 1.           constr(159)  -15.       
    var(168) OBJROW 124.         constr(12) 1.          
    var(168) constr(14) 1.          
    var(169) OBJROW 193.         constr(12) 1.          
    var(169) constr(15) 1.           constr(160)  -15.       
    var(170) OBJROW 59.          constr(12) 1.          
    var(170) constr(16) 1.           constr(161)  -15.       
    var(171) OBJROW 62.          constr(12) 1.          
    var(171) constr(17) 1.           constr(162)  -15.       
    var(172) OBJROW 155.         constr(12) 1.          
    var(172) constr(18) 1.           constr(163)  -15.       
    var(173) OBJROW 105.         constr(12) 1.          
    var(173) constr(19) 1.           constr(164)  -15.       
    var(174) OBJROW 57.          constr(12) 1.          
    var(174) constr(20) 1.           constr(165)  -15.       
    var(175) OBJROW 85.          constr(12) 1.          
    var(175) constr(21) 1.           constr(166)  -15.       
    var(176) OBJROW 107.         constr(12) 1.          
    var(176) constr(22) 1.           constr(167)  -15.       
    var(177) OBJROW 125.         constr(12) 1.          
    var(177) constr(23) 1.           constr(168)  -15.       
    var(178) OBJROW 22.          constr(12) 1.          
    var(178) constr(24) 1.           constr(169)  -15.       
    var(179) OBJROW 60.          constr(12) 1.          
    var(179) constr(25) 1.           constr(170)  -15.       
    var(181) OBJROW 97.          constr(12) 1.          
    var(181) constr(27) 1.           constr(171)  -15.       
    var(182) OBJROW 57.          constr(13) 1.          
    var(182) constr(14) 1.          
    var(183) OBJROW 100.         constr(13) 1.          
    var(183) constr(15) 1.           constr(172)  -15.       
    var(184) OBJROW 82.          constr(13) 1.          
    var(184) constr(16) 1.           constr(173)  -15.       
    var(185) OBJROW 63.          constr(13) 1.          
    var(185) constr(17) 1.           constr(174)  -15.       
    var(186) OBJROW 62.          constr(13) 1.          
    var(186) constr(18) 1.           constr(175)  -15.       
    var(187) OBJROW 16.          constr(13) 1.          
    var(187) constr(19) 1.           constr(176)  -15.       
    var(188) OBJROW 70.          constr(13) 1.          
    var(188) constr(20) 1.           constr(177)  -15.       
    var(189) OBJROW 29.          constr(13) 1.          
    var(189) constr(21) 1.           constr(178)  -15.       
    var(190) OBJROW 36.          constr(13) 1.          
    var(190) constr(22) 1.           constr(179)  -15.       
    var(191) OBJROW 43.          constr(13) 1.          
    var(191) constr(23) 1.           constr(180)  -15.       
    var(192) OBJROW 84.          constr(13) 1.          
    var(192) constr(24) 1.           constr(181)  -15.       
    var(193) OBJROW 44.          constr(13) 1.          
    var(193) constr(25) 1.           constr(182)  -15.       
    var(194) OBJROW 97.          constr(13) 1.          
    var(194) constr(26) 1.           constr(183)  -15.       
    var(197) constr(28) 1.           constr(29) 1.          
    var(197) constr(30) 1.           constr(31) 1.          
    var(197) constr(32) 1.           constr(33) 1.          
    var(197) constr(34) 1.           constr(35) 1.          
    var(197) constr(36) 1.           constr(37) 1.          
    var(197) constr(38) 1.           constr(39) 1.          
    var(197) constr(40)  -1.         constr(52)  -1.        
    var(197) constr(64)  -1.         constr(76)  -1.        
    var(197) constr(88)  -1.         constr(100)  -1.        
    var(197) constr(112)  -1.         constr(124)  -1.        
    var(197) constr(136)  -1.         constr(148)  -1.        
    var(197) constr(160)  -1.         constr(172)  -1.        
    var(198) constr(28)  -1.         constr(40) 1.          
    var(198) constr(41) 1.           constr(42) 1.          
    var(198) constr(43) 1.           constr(44) 1.          
    var(198) constr(45) 1.           constr(46) 1.          
    var(198) constr(47) 1.           constr(48) 1.          
    var(198) constr(49) 1.           constr(50) 1.          
    var(198) constr(51) 1.           constr(53)  -1.        
    var(198) constr(65)  -1.         constr(77)  -1.        
    var(198) constr(89)  -1.         constr(101)  -1.        
    var(198) constr(113)  -1.         constr(125)  -1.        
    var(198) constr(137)  -1.         constr(149)  -1.        
    var(198) constr(161)  -1.         constr(173)  -1.        
    var(199) constr(29)  -1.         constr(41)  -1.        
    var(199) constr(52) 1.           constr(53) 1.          
    var(199) constr(54) 1.           constr(55) 1.          
    var(199) constr(56) 1.           constr(57) 1.          
    var(199) constr(58) 1.           constr(59) 1.          
    var(199) constr(60) 1.           constr(61) 1.          
    var(199) constr(62) 1.           constr(63) 1.          
    var(199) constr(66)  -1.         constr(78)  -1.        
    var(199) constr(90)  -1.         constr(102)  -1.        
    var(199) constr(114)  -1.         constr(126)  -1.        
    var(199) constr(138)  -1.         constr(150)  -1.        
    var(199) constr(162)  -1.         constr(174)  -1.        
    var(200) constr(30)  -1.         constr(42)  -1.        
    var(200) constr(54)  -1.         constr(64) 1.          
    var(200) constr(65) 1.           constr(66) 1.          
    var(200) constr(67) 1.           constr(68) 1.          
    var(200) constr(69) 1.           constr(70) 1.          
    var(200) constr(71) 1.           constr(72) 1.          
    var(200) constr(73) 1.           constr(74) 1.          
    var(200) constr(75) 1.           constr(79)  -1.        
    var(200) constr(91)  -1.         constr(103)  -1.        
    var(200) constr(115)  -1.         constr(127)  -1.        
    var(200) constr(139)  -1.         constr(151)  -1.        
    var(200) constr(163)  -1.         constr(175)  -1.        
    var(201) constr(31)  -1.         constr(43)  -1.        
    var(201) constr(55)  -1.         constr(67)  -1.        
    var(201) constr(76) 1.           constr(77) 1.          
    var(201) constr(78) 1.           constr(79) 1.          
    var(201) constr(80) 1.           constr(81) 1.          
    var(201) constr(82) 1.           constr(83) 1.          
    var(201) constr(84) 1.           constr(85) 1.          
    var(201) constr(86) 1.           constr(87) 1.          
    var(201) constr(92)  -1.         constr(104)  -1.        
    var(201) constr(116)  -1.         constr(128)  -1.        
    var(201) constr(140)  -1.         constr(152)  -1.        
    var(201) constr(164)  -1.         constr(176)  -1.        
    var(202) constr(32)  -1.         constr(44)  -1.        
    var(202) constr(56)  -1.         constr(68)  -1.        
    var(202) constr(80)  -1.         constr(88) 1.          
    var(202) constr(89) 1.           constr(90) 1.          
    var(202) constr(91) 1.           constr(92) 1.          
    var(202) constr(93) 1.           constr(94) 1.          
    var(202) constr(95) 1.           constr(96) 1.          
    var(202) constr(97) 1.           constr(98) 1.          
    var(202) constr(99) 1.           constr(105)  -1.        
    var(202) constr(117)  -1.         constr(129)  -1.        
    var(202) constr(141)  -1.         constr(153)  -1.        
    var(202) constr(165)  -1.         constr(177)  -1.        
    var(203) constr(33)  -1.         constr(45)  -1.        
    var(203) constr(57)  -1.         constr(69)  -1.        
    var(203) constr(81)  -1.         constr(93)  -1.        
    var(203) constr(100) 1.           constr(101) 1.          
    var(203) constr(102) 1.           constr(103) 1.          
    var(203) constr(104) 1.           constr(105) 1.          
    var(203) constr(106) 1.           constr(107) 1.          
    var(203) constr(108) 1.           constr(109) 1.          
    var(203) constr(110) 1.           constr(111) 1.          
    var(203) constr(118)  -1.         constr(130)  -1.        
    var(203) constr(142)  -1.         constr(154)  -1.        
    var(203) constr(166)  -1.         constr(178)  -1.        
    var(204) constr(34)  -1.         constr(46)  -1.        
    var(204) constr(58)  -1.         constr(70)  -1.        
    var(204) constr(82)  -1.         constr(94)  -1.        
    var(204) constr(106)  -1.         constr(112) 1.          
    var(204) constr(113) 1.           constr(114) 1.          
    var(204) constr(115) 1.           constr(116) 1.          
    var(204) constr(117) 1.           constr(118) 1.          
    var(204) constr(119) 1.           constr(120) 1.          
    var(204) constr(121) 1.           constr(122) 1.          
    var(204) constr(123) 1.           constr(131)  -1.        
    var(204) constr(143)  -1.         constr(155)  -1.        
    var(204) constr(167)  -1.         constr(179)  -1.        
    var(205) constr(35)  -1.         constr(47)  -1.        
    var(205) constr(59)  -1.         constr(71)  -1.        
    var(205) constr(83)  -1.         constr(95)  -1.        
    var(205) constr(107)  -1.         constr(119)  -1.        
    var(205) constr(124) 1.           constr(125) 1.          
    var(205) constr(126) 1.           constr(127) 1.          
    var(205) constr(128) 1.           constr(129) 1.          
    var(205) constr(130) 1.           constr(131) 1.          
    var(205) constr(132) 1.           constr(133) 1.          
    var(205) constr(134) 1.           constr(135) 1.          
    var(205) constr(144)  -1.         constr(156)  -1.        
    var(205) constr(168)  -1.         constr(180)  -1.        
    var(206) constr(36)  -1.         constr(48)  -1.        
    var(206) constr(60)  -1.         constr(72)  -1.        
    var(206) constr(84)  -1.         constr(96)  -1.        
    var(206) constr(108)  -1.         constr(120)  -1.        
    var(206) constr(132)  -1.         constr(136) 1.          
    var(206) constr(137) 1.           constr(138) 1.          
    var(206) constr(139) 1.           constr(140) 1.          
    var(206) constr(141) 1.           constr(142) 1.          
    var(206) constr(143) 1.           constr(144) 1.          
    var(206) constr(145) 1.           constr(146) 1.          
    var(206) constr(147) 1.           constr(157)  -1.        
    var(206) constr(169)  -1.         constr(181)  -1.        
    var(207) constr(37)  -1.         constr(49)  -1.        
    var(207) constr(61)  -1.         constr(73)  -1.        
    var(207) constr(85)  -1.         constr(97)  -1.        
    var(207) constr(109)  -1.         constr(121)  -1.        
    var(207) constr(133)  -1.         constr(145)  -1.        
    var(207) constr(148) 1.           constr(149) 1.          
    var(207) constr(150) 1.           constr(151) 1.          
    var(207) constr(152) 1.           constr(153) 1.          
    var(207) constr(154) 1.           constr(155) 1.          
    var(207) constr(156) 1.           constr(157) 1.          
    var(207) constr(158) 1.           constr(159) 1.          
    var(207) constr(170)  -1.         constr(182)  -1.        
    var(208) constr(38)  -1.         constr(50)  -1.        
    var(208) constr(62)  -1.         constr(74)  -1.        
    var(208) constr(86)  -1.         constr(98)  -1.        
    var(208) constr(110)  -1.         constr(122)  -1.        
    var(208) constr(134)  -1.         constr(146)  -1.        
    var(208) constr(158)  -1.         constr(160) 1.          
    var(208) constr(161) 1.           constr(162) 1.          
    var(208) constr(163) 1.           constr(164) 1.          
    var(208) constr(165) 1.           constr(166) 1.          
    var(208) constr(167) 1.           constr(168) 1.          
    var(208) constr(169) 1.           constr(170) 1.          
    var(208) constr(171) 1.           constr(183)  -1.        
    var(209) constr(39)  -1.         constr(51)  -1.        
    var(209) constr(63)  -1.         constr(75)  -1.        
    var(209) constr(87)  -1.         constr(99)  -1.        
    var(209) constr(111)  -1.         constr(123)  -1.        
    var(209) constr(135)  -1.         constr(147)  -1.        
    var(209) constr(159)  -1.         constr(171)  -1.        
    var(209) constr(172) 1.           constr(173) 1.          
    var(209) constr(174) 1.           constr(175) 1.          
    var(209) constr(176) 1.           constr(177) 1.          
    var(209) constr(178) 1.           constr(179) 1.          
    var(209) constr(180) 1.           constr(181) 1.          
    var(209) constr(182) 1.           constr(183) 1.          
RHS
    RHS constr(0) 1.           constr(1) 1.          
    RHS constr(2) 1.           constr(3) 1.          
    RHS constr(4) 1.           constr(5) 1.          
    RHS constr(6) 1.           constr(7) 1.          
    RHS constr(8) 1.           constr(9) 1.          
    RHS constr(10) 1.           constr(11) 1.          
    RHS constr(12) 1.           constr(13) 1.          
    RHS constr(14) 1.           constr(15) 1.          
    RHS constr(16) 1.           constr(17) 1.          
    RHS constr(18) 1.           constr(19) 1.          
    RHS constr(20) 1.           constr(21) 1.          
    RHS constr(22) 1.           constr(23) 1.          
    RHS constr(24) 1.           constr(25) 1.          
    RHS constr(26) 1.           constr(27) 1.          
    RHS constr(28)  -14.        constr(29)  -14.       
    RHS constr(30)  -14.        constr(31)  -14.       
    RHS constr(32)  -14.        constr(33)  -14.       
    RHS constr(34)  -14.        constr(35)  -14.       
    RHS constr(36)  -14.        constr(37)  -14.       
    RHS constr(38)  -14.        constr(39)  -14.       
    RHS constr(40)  -14.        constr(41)  -14.       
    RHS constr(42)  -14.        constr(43)  -14.       
    RHS constr(44)  -14.        constr(45)  -14.       
    RHS constr(46)  -14.        constr(47)  -14.       
    RHS constr(48)  -14.        constr(49)  -14.       
    RHS constr(50)  -14.        constr(51)  -14.       
    RHS constr(52)  -14.        constr(53)  -14.       
    RHS constr(54)  -14.        constr(55)  -14.       
    RHS constr(56)  -14.        constr(57)  -14.       
    RHS constr(58)  -14.        constr(59)  -14.       
    RHS constr(60)  -14.        constr(61)  -14.       
    RHS constr(62)  -14.        constr(63)  -14.       
    RHS constr(64)  -14.        constr(65)  -14.       
    RHS constr(66)  -14.        constr(67)  -14.       
    RHS constr(68)  -14.        constr(69)  -14.       
    RHS constr(70)  -14.        constr(71)  -14.       
    RHS constr(72)  -14.        constr(73)  -14.       
    RHS constr(74)  -14.        constr(75)  -14.       
    RHS constr(76)  -14.        constr(77)  -14.       
    RHS constr(78)  -14.        constr(79)  -14.       
    RHS constr(80)  -14.        constr(81)  -14.       
    RHS constr(82)  -14.        constr(83)  -14.       
    RHS constr(84)  -14.        constr(85)  -14.       
    RHS constr(86)  -14.        constr(87)  -14.       
    RHS constr(88)  -14.        constr(89)  -14.       
    RHS constr(90)  -14.        constr(91)  -14.       
    RHS constr(92)  -14.        constr(93)  -14.       
    RHS constr(94)  -14.        constr(95)  -14.       
    RHS constr(96)  -14.        constr(97)  -14.       
    RHS constr(98)  -14.        constr(99)  -14.       
    RHS constr(100)  -14.        constr(101)  -14.       
    RHS constr(102)  -14.        constr(103)  -14.       
    RHS constr(104)  -14.        constr(105)  -14.       
    RHS constr(106)  -14.        constr(107)  -14.       
    RHS constr(108)  -14.        constr(109)  -14.       
    RHS constr(110)  -14.        constr(111)  -14.       
    RHS constr(112)  -14.        constr(113)  -14.       
    RHS constr(114)  -14.        constr(115)  -14.       
    RHS constr(116)  -14.        constr(117)  -14.       
    RHS constr(118)  -14.        constr(119)  -14.       
    RHS constr(120)  -14.        constr(121)  -14.       
    RHS constr(122)  -14.        constr(123)  -14.       
    RHS constr(124)  -14.        constr(125)  -14.       
    RHS constr(126)  -14.        constr(127)  -14.       
    RHS constr(128)  -14.        constr(129)  -14.       
    RHS constr(130)  -14.        constr(131)  -14.       
    RHS constr(132)  -14.        constr(133)  -14.       
    RHS constr(134)  -14.        constr(135)  -14.       
    RHS constr(136)  -14.        constr(137)  -14.       
    RHS constr(138)  -14.        constr(139)  -14.       
    RHS constr(140)  -14.        constr(141)  -14.       
    RHS constr(142)  -14.        constr(143)  -14.       
    RHS constr(144)  -14.        constr(145)  -14.       
    RHS constr(146)  -14.        constr(147)  -14.       
    RHS constr(148)  -14.        constr(149)  -14.       
    RHS constr(150)  -14.        constr(151)  -14.       
    RHS constr(152)  -14.        constr(153)  -14.       
    RHS constr(154)  -14.        constr(155)  -14.       
    RHS constr(156)  -14.        constr(157)  -14.       
    RHS constr(158)  -14.        constr(159)  -14.       
    RHS constr(160)  -14.        constr(161)  -14.       
    RHS constr(162)  -14.        constr(163)  -14.       
    RHS constr(164)  -14.        constr(165)  -14.       
    RHS constr(166)  -14.        constr(167)  -14.       
    RHS constr(168)  -14.        constr(169)  -14.       
    RHS constr(170)  -14.        constr(171)  -14.       
    RHS constr(172)  -14.        constr(173)  -14.       
    RHS constr(174)  -14.        constr(175)  -14.       
    RHS constr(176)  -14.        constr(177)  -14.       
    RHS constr(178)  -14.        constr(179)  -14.       
    RHS constr(180)  -14.        constr(181)  -14.       
    RHS constr(182)  -14.        constr(183)  -14.       
BOUNDS
 BV BOUND var(1) 1.          
 BV BOUND var(2) 1.          
 BV BOUND var(3) 1.          
 BV BOUND var(4) 1.          
 BV BOUND var(5) 1.          
 BV BOUND var(6) 1.          
 BV BOUND var(7) 1.          
 BV BOUND var(8) 1.          
 BV BOUND var(9) 1.          
 BV BOUND var(10) 1.          
 BV BOUND var(11) 1.          
 BV BOUND var(12) 1.          
 BV BOUND var(13) 1.          
 BV BOUND var(14) 1.          
 BV BOUND var(16) 1.          
 BV BOUND var(17) 1.          
 BV BOUND var(18) 1.          
 BV BOUND var(19) 1.          
 BV BOUND var(20) 1.          
 BV BOUND var(21) 1.          
 BV BOUND var(22) 1.          
 BV BOUND var(23) 1.          
 BV BOUND var(24) 1.          
 BV BOUND var(25) 1.          
 BV BOUND var(26) 1.          
 BV BOUND var(27) 1.          
 BV BOUND var(28) 1.          
 BV BOUND var(29) 1.          
 BV BOUND var(31) 1.          
 BV BOUND var(32) 1.          
 BV BOUND var(33) 1.          
 BV BOUND var(34) 1.          
 BV BOUND var(35) 1.          
 BV BOUND var(36) 1.          
 BV BOUND var(37) 1.          
 BV BOUND var(38) 1.          
 BV BOUND var(39) 1.          
 BV BOUND var(40) 1.          
 BV BOUND var(41) 1.          
 BV BOUND var(42) 1.          
 BV BOUND var(43) 1.          
 BV BOUND var(44) 1.          
 BV BOUND var(46) 1.          
 BV BOUND var(47) 1.          
 BV BOUND var(48) 1.          
 BV BOUND var(49) 1.          
 BV BOUND var(50) 1.          
 BV BOUND var(51) 1.          
 BV BOUND var(52) 1.          
 BV BOUND var(53) 1.          
 BV BOUND var(54) 1.          
 BV BOUND var(55) 1.          
 BV BOUND var(56) 1.          
 BV BOUND var(57) 1.          
 BV BOUND var(58) 1.          
 BV BOUND var(59) 1.          
 BV BOUND var(61) 1.          
 BV BOUND var(62) 1.          
 BV BOUND var(63) 1.          
 BV BOUND var(64) 1.          
 BV BOUND var(65) 1.          
 BV BOUND var(66) 1.          
 BV BOUND var(67) 1.          
 BV BOUND var(68) 1.          
 BV BOUND var(69) 1.          
 BV BOUND var(70) 1.          
 BV BOUND var(71) 1.          
 BV BOUND var(72) 1.          
 BV BOUND var(73) 1.          
 BV BOUND var(74) 1.          
 BV BOUND var(76) 1.          
 BV BOUND var(77) 1.          
 BV BOUND var(78) 1.          
 BV BOUND var(79) 1.          
 BV BOUND var(80) 1.          
 BV BOUND var(81) 1.          
 BV BOUND var(82) 1.          
 BV BOUND var(83) 1.          
 BV BOUND var(84) 1.          
 BV BOUND var(85) 1.          
 BV BOUND var(86) 1.          
 BV BOUND var(87) 1.          
 BV BOUND var(88) 1.          
 BV BOUND var(89) 1.          
 BV BOUND var(91) 1.          
 BV BOUND var(92) 1.          
 BV BOUND var(93) 1.          
 BV BOUND var(94) 1.          
 BV BOUND var(95) 1.          
 BV BOUND var(96) 1.          
 BV BOUND var(97) 1.          
 BV BOUND var(98) 1.          
 BV BOUND var(99) 1.          
 BV BOUND var(100) 1.          
 BV BOUND var(101) 1.          
 BV BOUND var(102) 1.          
 BV BOUND var(103) 1.          
 BV BOUND var(104) 1.          
 BV BOUND var(106) 1.          
 BV BOUND var(107) 1.          
 BV BOUND var(108) 1.          
 BV BOUND var(109) 1.          
 BV BOUND var(110) 1.          
 BV BOUND var(111) 1.          
 BV BOUND var(112) 1.          
 BV BOUND var(113) 1.          
 BV BOUND var(114) 1.          
 BV BOUND var(115) 1.          
 BV BOUND var(116) 1.          
 BV BOUND var(117) 1.          
 BV BOUND var(118) 1.          
 BV BOUND var(119) 1.          
 BV BOUND var(121) 1.          
 BV BOUND var(122) 1.          
 BV BOUND var(123) 1.          
 BV BOUND var(124) 1.          
 BV BOUND var(125) 1.          
 BV BOUND var(126) 1.          
 BV BOUND var(127) 1.          
 BV BOUND var(128) 1.          
 BV BOUND var(129) 1.          
 BV BOUND var(130) 1.          
 BV BOUND var(131) 1.          
 BV BOUND var(132) 1.          
 BV BOUND var(133) 1.          
 BV BOUND var(134) 1.          
 BV BOUND var(136) 1.          
 BV BOUND var(137) 1.          
 BV BOUND var(138) 1.          
 BV BOUND var(139) 1.          
 BV BOUND var(140) 1.          
 BV BOUND var(141) 1.          
 BV BOUND var(142) 1.          
 BV BOUND var(143) 1.          
 BV BOUND var(144) 1.          
 BV BOUND var(145) 1.          
 BV BOUND var(146) 1.          
 BV BOUND var(147) 1.          
 BV BOUND var(148) 1.          
 BV BOUND var(149) 1.          
 BV BOUND var(151) 1.          
 BV BOUND var(152) 1.          
 BV BOUND var(153) 1.          
 BV BOUND var(154) 1.          
 BV BOUND var(155) 1.          
 BV BOUND var(156) 1.          
 BV BOUND var(157) 1.          
 BV BOUND var(158) 1.          
 BV BOUND var(159) 1.          
 BV BOUND var(160) 1.          
 BV BOUND var(161) 1.          
 BV BOUND var(162) 1.          
 BV BOUND var(163) 1.          
 BV BOUND var(164) 1.          
 BV BOUND var(166) 1.          
 BV BOUND var(167) 1.          
 BV BOUND var(168) 1.          
 BV BOUND var(169) 1.          
 BV BOUND var(170) 1.          
 BV BOUND var(171) 1.          
 BV BOUND var(172) 1.          
 BV BOUND var(173) 1.          
 BV BOUND var(174) 1.          
 BV BOUND var(175) 1.          
 BV BOUND var(176) 1.          
 BV BOUND var(177) 1.          
 BV BOUND var(178) 1.          
 BV BOUND var(179) 1.          
 BV BOUND var(181) 1.          
 BV BOUND var(182) 1.          
 BV BOUND var(183) 1.          
 BV BOUND var(184) 1.          
 BV BOUND var(185) 1.          
 BV BOUND var(186) 1.          
 BV BOUND var(187) 1.          
 BV BOUND var(188) 1.          
 BV BOUND var(189) 1.          
 BV BOUND var(190) 1.          
 BV BOUND var(191) 1.          
 BV BOUND var(192) 1.          
 BV BOUND var(193) 1.          
 BV BOUND var(194) 1.          
ENDATA
